Travel Smoothly Between Country Name and Code Formats • passport
…
parse_country(c("1600 Pennsylvania Ave, DC", "Eiffel Tower"), how = "google")
#> [1] "US" "FR"

II. Convert

If data comes with countries already coded, convert them with as_country_code():

# 2016 Olympic gold medal data
olympics <- read.table("https://raw.githubusercontent.com/nbremer/olympicfeathers/gh-pages/data/raw%20medal%20data/Rio%202016%20gold%20medal%20winners.txt",
                       sep = "\t", header = TRUE, na.strings = "",
                       stringsAsFactors = FALSE)

olympics %>% count(country = as_country_code(NOC, from = "ioc"), sort = TRUE)
#> # A tibble: 59 x 2
#>    country     n
#>    <chr>   <int>
#>  1 US         46
#>  2 GB         28
#>  3 CN         26
#>  4 RU         19
#>  5 DE         18
#>  6 JP         12
#>  7 FR         11
#>  8 KR          9
#>  9 AU          8
#> 10 HU          8
#> # … with 49 more rows

or to convert to country names, use as_country_name():

olympics %>%
    count(country = as_country_name(NOC, from = "ioc"),
          Event_gender) %>%
    spread(Event_gender, n) %>%
    arrange(desc(W))
#> # A tibble: 59 x 4
#>    country         M     W     X
#>    <chr>       <int> <int> <int>
#>  1 US             17    27     2
#>  2 China          12    14    NA
#>  3 Russia          9    10    NA
#>  4 Hungary         1     7    NA
#>  5 Japan           5     7    NA
#>  6 UK             19     7     2
#>  7 Netherlands     2     6    NA
#>  8 Australia       3     5    NA
#>  9 Germany        10     5     3
#> 10 South Korea     4     5    NA
#> # … with 49 more rows
…
